basename,non_black_ratio
0001_I00961476_1.2.410.200055.999.999.4113192521.2136.1471251672.144807.dcm.tiff,0.846343994141
0001_I00961547_1.2.410.200055.999.999.4113192521.2136.1471251685.144878.dcm.tiff,0.721126556396
0001_I00961555_1.2.410.200055.999.999.4113192521.2136.1471251686.144886.dcm.tiff,0.803043365479
0001_I00961566_1.2.410.200055.999.999.4113192521.2136.1471251690.144897.dcm.tiff,0.687469482422
0001_I00961577_1.2.410.200055.999.999.4113192521.2136.1471251691.144908.dcm.tiff,0.735877990723
0001_I00961579_1.2.410.200055.999.999.4113192521.2136.1471251692.144910.dcm.tiff,0.738594055176
0001_I00961638_1.2.410.200055.999.999.4113192521.2136.1471251701.144969.dcm.tiff,0.704132080078
0001_I00961678_1.2.410.200055.999.999.4113192521.2136.1471251705.145009.dcm.tiff,0.664775848389
0001_I00961699_1.2.410.200055.999.999.4113192521.2136.1471251708.145030.dcm.tiff,0.74547958374
0001_I00961703_1.2.410.200055.999.999.4113192521.2136.1471251709.145034.dcm.tiff,0.722511291504
0001_I00961794_1.2.410.200055.999.999.4113192521.2136.1471251739.145125.dcm.tiff,0.076171875
0001_I00961806_1.2.410.200055.999.999.4113192521.2136.1471251747.145137.dcm.tiff,0.740188598633
0001_I00962345_1.2.410.200055.999.999.4113192521.2136.1471251792.145676.dcm.tiff,0.719264984131
0001_I00962386_1.2.410.200055.999.999.4113192521.2136.1471251802.145717.dcm.tiff,0.758666992188
0001_I00962466_1.2.410.200055.999.999.4113192521.2136.1471251829.145797.dcm.tiff,0.719829559326
0001_I00980723_1.2.410.200055.999.999.4113192521.2136.1471254546.147912.dcm.tiff,0.844944000244
0001_I00980739_1.2.410.200055.999.999.4113192521.2136.1471254548.147920.dcm.tiff,0.723983764648
0001_I00980783_1.2.410.200055.999.999.4113192521.2136.1471254562.147942.dcm.tiff,0.695652008057
0001_I00980803_1.2.410.200055.999.999.4113192521.2136.1471254563.147952.dcm.tiff,0.762542724609
0001_I00980807_1.2.410.200055.999.999.4113192521.2136.1471254566.147954.dcm.tiff,0.718441009521
0001_I00980811_1.2.410.200055.999.999.4113192521.2136.1471254567.147956.dcm.tiff,0.73458480835
0001_I00980827_1.2.410.200055.999.999.4113192521.2136.1471254571.147964.dcm.tiff,0.760471343994
0001_I00980831_1.2.410.200055.999.999.4113192521.2136.1471254572.147966.dcm.tiff,0.715690612793
0001_I00980857_1.2.410.200055.999.999.4113192521.2136.1471254582.147979.dcm.tiff,0.076171875
0001_I01020854_1.2.410.200055.999.999.4113192521.2136.1471261285.159192.dcm.tiff,0.778964996338
0001_I01020856_1.2.410.200055.999.999.4113192521.2136.1471261285.159194.dcm.tiff,0.768489837646
0001_I01021001_1.2.410.200055.999.999.4113192521.2136.1471261304.159339.dcm.tiff,0.792602539062
0001_I01021003_1.2.410.200055.999.999.4113192521.2136.1471261306.159341.dcm.tiff,0.714889526367
0001_I01021017_1.2.410.200055.999.999.4113192521.2136.1471261308.159355.dcm.tiff,0.780612945557
0001_I01021096_1.2.410.200055.999.999.4113192521.2136.1471261328.159434.dcm.tiff,0.762886047363
0001_I01021150_1.2.410.200055.999.999.4113192521.2136.1471261333.159488.dcm.tiff,0.806415557861
0001_I01021650_1.2.410.200055.999.999.4113192521.2136.1471261362.159988.dcm.tiff,0.831550598145
0001_I01021651_1.2.410.200055.999.999.4113192521.2136.1471261362.159989.dcm.tiff,0.778835296631
0001_I01021657_1.2.410.200055.999.999.4113192521.2136.1471261364.159995.dcm.tiff,0.792404174805
0001_I01021700_1.2.410.200055.999.999.4113192521.2136.1471261370.160038.dcm.tiff,0.769672393799
0001_I01040405_1.2.410.200055.999.999.4113192521.2136.1471264822.161497.dcm.tiff,0.776462554932
0001_I01040409_1.2.410.200055.999.999.4113192521.2136.1471264823.161501.dcm.tiff,0.76286315918
0001_I01040469_1.2.410.200055.999.999.4113192521.2136.1471264835.161561.dcm.tiff,0.73556137085
0001_I01040471_1.2.410.200055.999.999.4113192521.2136.1471264837.161563.dcm.tiff,0.734172821045
0001_I01040480_1.2.410.200055.999.999.4113192521.2136.1471264839.161572.dcm.tiff,0.076171875
0001_I01040488_1.2.410.200055.999.999.4113192521.2136.1471264840.161580.dcm.tiff,0.76127243042
0001_I01040490_1.2.410.200055.999.999.4113192521.2136.1471264841.161582.dcm.tiff,0.779777526855
0001_I01040492_1.2.410.200055.999.999.4113192521.2136.1471264841.161584.dcm.tiff,0.076171875
0001_I01040524_1.2.410.200055.999.999.4113192521.2136.1471264852.161616.dcm.tiff,0.789653778076
0001_I01040526_1.2.410.200055.999.999.4113192521.2136.1471264852.161618.dcm.tiff,0.790550231934
0001_I01040558_1.2.410.200055.999.999.4113192521.2136.1471264859.161650.dcm.tiff,0.773937225342
0001_I01040578_1.2.410.200055.999.999.4113192521.2136.1471264864.161670.dcm.tiff,0.776084899902
0001_I01040637_1.2.410.200055.999.999.4113192521.2136.1471264874.161729.dcm.tiff,0.741405487061
0001_I01040647_1.2.410.200055.999.999.4113192521.2136.1471264879.161739.dcm.tiff,0.795482635498
0001_I01040653_1.2.410.200055.999.999.4113192521.2136.1471264880.161745.dcm.tiff,0.776580810547
0001_I01040655_1.2.410.200055.999.999.4113192521.2136.1471264881.161747.dcm.tiff,0.770393371582
0001_I01040657_1.2.410.200055.999.999.4113192521.2136.1471264881.161749.dcm.tiff,0.780380249023
0001_I01040667_1.2.410.200055.999.999.4113192521.2136.1471264885.161759.dcm.tiff,0.764270782471
0001_I01040686_1.2.410.200055.999.999.4113192521.2136.1471264886.161778.dcm.tiff,0.780292510986
0001_I01040719_1.2.410.200055.999.999.4113192521.2136.1471264890.161811.dcm.tiff,0.800590515137
0001_I01040751_1.2.410.200055.999.999.4113192521.2136.1471264893.161843.dcm.tiff,0.786365509033
0001_I01041227_1.2.410.200055.999.999.4113192521.2136.1471264931.162319.dcm.tiff,0.801639556885
0001_I01053494_1.2.410.200055.999.999.4113192521.2136.1471266363.164889.dcm.tiff,0.754467010498
0001_I01053520_1.2.410.200055.999.999.4113192521.2136.1471266376.164915.dcm.tiff,0.749172210693
0001_I01340566_1.2.410.200055.999.999.554791750.5132.1471360652.54306.dcm.tiff,0.864082336426
0001_I01340608_1.2.410.200055.999.999.554791750.5132.1471360652.54348.dcm.tiff,0.777900695801
0001_I01340674_1.2.410.200055.999.999.554791750.5132.1471360652.54414.dcm.tiff,0.782451629639
0001_I01388983_1.2.410.200055.999.999.554791750.6088.1471449089.9649.dcm.tiff,0.796005249023
0001_I01389042_1.2.410.200055.999.999.554791750.6088.1471449090.9708.dcm.tiff,0.0761375427246
0001_I01389044_1.2.410.200055.999.999.554791750.6088.1471449090.9710.dcm.tiff,0.076171875
0001_I01464288_1.2.410.200055.999.999.554791750.6088.1471524345.28480.dcm.tiff,0.755344390869
0001_I01466064_1.2.410.200055.999.999.554791750.6088.1471524346.28924.dcm.tiff,0.850509643555
0001_I01469656_1.2.410.200055.999.999.2259571332.1048.1471525217.223798.dcm.tiff,0.076171875
0001_I01480874_1.2.410.200055.999.999.554791750.6088.1471527613.33832.dcm.tiff,0.742858886719
0001_I01480950_1.2.410.200055.999.999.554791750.6088.1471527613.33908.dcm.tiff,0.076171875
0001_I01499751_1.2.410.200055.999.999.2259571332.1048.1471742450.229972.dcm.tiff,0.834114074707
0001_I01499785_1.2.410.200055.999.999.2259571332.1048.1471742452.229989.dcm.tiff,0.854190826416
0001_I01516160_1.2.410.200055.999.999.2259571332.1048.1471750171.233456.dcm.tiff,0.771492004395
0001_I01526512_1.2.410.200055.999.999.2259571332.1048.1471757575.235588.dcm.tiff,0.762828826904
0001_I01558683_1.2.410.200055.999.999.2259571332.1048.1471769951.242739.dcm.tiff,0.784313201904
0001_I01570343_1.2.410.200055.999.999.2259571332.1048.1471772880.244658.dcm.tiff,0.852760314941
0001_I01605995_1.2.410.200055.999.999.554791750.1080.1471784626.4310.dcm.tiff,0.076171875
0001_I01622181_1.2.410.200055.999.999.554791750.1080.1471787931.11356.dcm.tiff,0.076171875
0001_I01632631_1.2.410.200055.999.999.554791750.1080.1471791409.15437.dcm.tiff,0.867919921875
0001_I01643196_1.2.410.200055.999.999.554791750.1080.1471793677.19878.dcm.tiff,0.776180267334
0002_I00961477_1.2.410.200055.999.999.4113192521.2136.1471251672.144808.dcm.tiff,0.808261871338
0002_I00961548_1.2.410.200055.999.999.4113192521.2136.1471251685.144879.dcm.tiff,0.752708435059
0002_I00961556_1.2.410.200055.999.999.4113192521.2136.1471251686.144887.dcm.tiff,0.736865997314
0002_I00961567_1.2.410.200055.999.999.4113192521.2136.1471251690.144898.dcm.tiff,0.693649291992
0002_I00961578_1.2.410.200055.999.999.4113192521.2136.1471251692.144909.dcm.tiff,0.742900848389
0002_I00961580_1.2.410.200055.999.999.4113192521.2136.1471251692.144911.dcm.tiff,0.746528625488
0002_I00961639_1.2.410.200055.999.999.4113192521.2136.1471251701.144970.dcm.tiff,0.641311645508
0002_I00961679_1.2.410.200055.999.999.4113192521.2136.1471251705.145010.dcm.tiff,0.754619598389
0002_I00961700_1.2.410.200055.999.999.4113192521.2136.1471251708.145031.dcm.tiff,0.724674224854
0002_I00961704_1.2.410.200055.999.999.4113192521.2136.1471251710.145035.dcm.tiff,0.743968963623
0002_I00961795_1.2.410.200055.999.999.4113192521.2136.1471251740.145126.dcm.tiff,0.076171875
0002_I00961807_1.2.410.200055.999.999.4113192521.2136.1471251747.145138.dcm.tiff,0.754970550537
0002_I00980725_1.2.410.200055.999.999.4113192521.2136.1471254546.147913.dcm.tiff,0.861751556396
0002_I00980741_1.2.410.200055.999.999.4113192521.2136.1471254549.147921.dcm.tiff,0.727348327637
0002_I00980805_1.2.410.200055.999.999.4113192521.2136.1471254563.147953.dcm.tiff,0.747230529785
0002_I00980809_1.2.410.200055.999.999.4113192521.2136.1471254566.147955.dcm.tiff,0.737926483154
0002_I00980813_1.2.410.200055.999.999.4113192521.2136.1471254570.147957.dcm.tiff,0.758235931396
0002_I00980829_1.2.410.200055.999.999.4113192521.2136.1471254572.147965.dcm.tiff,0.77453994751
0002_I00980833_1.2.410.200055.999.999.4113192521.2136.1471254572.147967.dcm.tiff,0.718589782715
0002_I00980859_1.2.410.200055.999.999.4113192521.2136.1471254583.147980.dcm.tiff,0.076171875
0002_I01020855_1.2.410.200055.999.999.4113192521.2136.1471261285.159193.dcm.tiff,0.773155212402
0002_I01020857_1.2.410.200055.999.999.4113192521.2136.1471261286.159195.dcm.tiff,0.766613006592
0002_I01021002_1.2.410.200055.999.999.4113192521.2136.1471261305.159340.dcm.tiff,0.797847747803
0002_I01021004_1.2.410.200055.999.999.4113192521.2136.1471261306.159342.dcm.tiff,0.745685577393
0002_I01021018_1.2.410.200055.999.999.4113192521.2136.1471261308.159356.dcm.tiff,0.783596038818
0002_I01021097_1.2.410.200055.999.999.4113192521.2136.1471261328.159435.dcm.tiff,0.77713394165
0002_I01021151_1.2.410.200055.999.999.4113192521.2136.1471261334.159489.dcm.tiff,0.806041717529
0002_I01040406_1.2.410.200055.999.999.4113192521.2136.1471264822.161498.dcm.tiff,0.70059967041
0002_I01040410_1.2.410.200055.999.999.4113192521.2136.1471264827.161502.dcm.tiff,0.773494720459
0002_I01040470_1.2.410.200055.999.999.4113192521.2136.1471264836.161562.dcm.tiff,0.721942901611
0002_I01040472_1.2.410.200055.999.999.4113192521.2136.1471264837.161564.dcm.tiff,0.757781982422
0002_I01040481_1.2.410.200055.999.999.4113192521.2136.1471264839.161573.dcm.tiff,0.076171875
0002_I01040489_1.2.410.200055.999.999.4113192521.2136.1471264841.161581.dcm.tiff,0.780452728271
0002_I01040491_1.2.410.200055.999.999.4113192521.2136.1471264841.161583.dcm.tiff,0.768848419189
0002_I01040493_1.2.410.200055.999.999.4113192521.2136.1471264841.161585.dcm.tiff,0.076171875
0002_I01040525_1.2.410.200055.999.999.4113192521.2136.1471264852.161617.dcm.tiff,0.765110015869
0002_I01040527_1.2.410.200055.999.999.4113192521.2136.1471264852.161619.dcm.tiff,0.777454376221
0002_I01040545_1.2.410.200055.999.999.4113192521.2136.1471264856.161637.dcm.tiff,0.800579071045
0002_I01040559_1.2.410.200055.999.999.4113192521.2136.1471264859.161651.dcm.tiff,0.769355773926
0002_I01040579_1.2.410.200055.999.999.4113192521.2136.1471264865.161671.dcm.tiff,0.80313873291
0002_I01040638_1.2.410.200055.999.999.4113192521.2136.1471264875.161730.dcm.tiff,0.789810180664
0002_I01040648_1.2.410.200055.999.999.4113192521.2136.1471264879.161740.dcm.tiff,0.78430557251
0002_I01040654_1.2.410.200055.999.999.4113192521.2136.1471264880.161746.dcm.tiff,0.793979644775
0002_I01040656_1.2.410.200055.999.999.4113192521.2136.1471264881.161748.dcm.tiff,0.77657699585
0002_I01040658_1.2.410.200055.999.999.4113192521.2136.1471264881.161750.dcm.tiff,0.787605285645
0002_I01040668_1.2.410.200055.999.999.4113192521.2136.1471264885.161760.dcm.tiff,0.75927734375
0002_I01040687_1.2.410.200055.999.999.4113192521.2136.1471264887.161779.dcm.tiff,0.763484954834
0002_I01040720_1.2.410.200055.999.999.4113192521.2136.1471264890.161812.dcm.tiff,0.794681549072
0002_I01040752_1.2.410.200055.999.999.4113192521.2136.1471264893.161844.dcm.tiff,0.767356872559
0002_I01340567_1.2.410.200055.999.999.554791750.5132.1471360652.54307.dcm.tiff,0.863765716553
0002_I01340609_1.2.410.200055.999.999.554791750.5132.1471360652.54349.dcm.tiff,0.836841583252
0002_I01340675_1.2.410.200055.999.999.554791750.5132.1471360652.54415.dcm.tiff,0.805843353271
0002_I01389043_1.2.410.200055.999.999.554791750.6088.1471449090.9709.dcm.tiff,0.076171875
0002_I01389045_1.2.410.200055.999.999.554791750.6088.1471449090.9711.dcm.tiff,0.076171875
0002_I01464292_1.2.410.200055.999.999.554791750.6088.1471524345.28481.dcm.tiff,0.758972167969
0002_I01469657_1.2.410.200055.999.999.2259571332.1048.1471525218.223799.dcm.tiff,0.076171875
0002_I01480875_1.2.410.200055.999.999.554791750.6088.1471527613.33833.dcm.tiff,0.763000488281
0002_I01480951_1.2.410.200055.999.999.554791750.6088.1471527613.33909.dcm.tiff,0.076171875
0002_I01499753_1.2.410.200055.999.999.2259571332.1048.1471742450.229973.dcm.tiff,0.728538513184
0002_I01499787_1.2.410.200055.999.999.2259571332.1048.1471742452.229990.dcm.tiff,0.759166717529
0002_I01526513_1.2.410.200055.999.999.2259571332.1048.1471757575.235589.dcm.tiff,0.8190574646
0002_I01558685_1.2.410.200055.999.999.2259571332.1048.1471769951.242740.dcm.tiff,0.77278137207
0002_I01570347_1.2.410.200055.999.999.2259571332.1048.1471772881.244659.dcm.tiff,0.855346679688
0002_I01605996_1.2.410.200055.999.999.554791750.1080.1471784626.4311.dcm.tiff,0.076171875
0002_I01622183_1.2.410.200055.999.999.554791750.1080.1471787931.11357.dcm.tiff,0.076171875
0002_I01632632_1.2.410.200055.999.999.554791750.1080.1471791409.15438.dcm.tiff,0.86873626709
0003_I01040397_1.2.410.200055.999.999.4113192521.2136.1471264820.161489.dcm.tiff,0.776924133301
0003_I01040546_1.2.410.200055.999.999.4113192521.2136.1471264857.161638.dcm.tiff,0.790245056152
0004_I01040398_1.2.410.200055.999.999.4113192521.2136.1471264820.161490.dcm.tiff,0.758941650391
0445_I00503859_1.2.410.200055.999.999.2259571332.1048.1471079370.23292.dcm.tiff,0.868431091309
13276_I00647953_1.2.410.200055.999.999.3213476655.13208.1471103210.45257.dcm.tiff,9.91821289062e-05
13277_I00647954_1.2.410.200055.999.999.3213476655.13208.1471103210.45258.dcm.tiff,0.000137329101562
179063_I00559216_1.2.410.200055.999.999.4113192521.2136.1471088303.32945.dcm.tiff,0.86967086792
193218_I00604200_1.2.410.200055.999.999.4113192521.2136.1471095273.48275.dcm.tiff,0.869064331055
28866_I00284649_1.2.410.200055.999.999.2259571332.1616.1470757737.10959.dcm.tiff,0.0331802368164
290056_I00530455_1.2.410.200055.999.999.2259571332.1048.1471084044.29754.dcm.tiff,0.0760536193848
290057_I00530456_1.2.410.200055.999.999.2259571332.1048.1471084044.29755.dcm.tiff,0.0760192871094
290095_I00530431_1.2.410.200055.999.999.2259571332.1048.1471084039.29730.dcm.tiff,0.0692138671875
290096_I00530432_1.2.410.200055.999.999.2259571332.1048.1471084039.29731.dcm.tiff,0.0666770935059
290113_I00530416_1.2.410.200055.999.999.2259571332.1048.1471084035.29715.dcm.tiff,0.0606460571289
290114_I00530417_1.2.410.200055.999.999.2259571332.1048.1471084035.29716.dcm.tiff,0.0756645202637
290140_I00530369_1.2.410.200055.999.999.2259571332.1048.1471084027.29668.dcm.tiff,0.0760726928711
290141_I00530370_1.2.410.200055.999.999.2259571332.1048.1471084027.29669.dcm.tiff,0.0666236877441
290149_I00531141_1.2.410.200055.999.999.2259571332.1048.1471084100.30440.dcm.tiff,0.0695648193359
290164_I00531136_1.2.410.200055.999.999.2259571332.1048.1471084099.30435.dcm.tiff,0.076000213623
290253_I00530314_1.2.410.200055.999.999.2259571332.1048.1471084017.29613.dcm.tiff,0.0636291503906
290254_I00530315_1.2.410.200055.999.999.2259571332.1048.1471084018.29614.dcm.tiff,0.0759582519531
290256_I00530312_1.2.410.200055.999.999.2259571332.1048.1471084016.29611.dcm.tiff,0.0728073120117
290257_I00530313_1.2.410.200055.999.999.2259571332.1048.1471084017.29612.dcm.tiff,0.068000793457
290259_I00530310_1.2.410.200055.999.999.2259571332.1048.1471084015.29609.dcm.tiff,0.0759353637695
290260_I00530311_1.2.410.200055.999.999.2259571332.1048.1471084016.29610.dcm.tiff,0.0760917663574
290284_I00531113_1.2.410.200055.999.999.2259571332.1048.1471084097.30412.dcm.tiff,0.0681228637695
290288_I00530228_1.2.410.200055.999.999.2259571332.1048.1471084009.29527.dcm.tiff,0.0682716369629
290289_I00530229_1.2.410.200055.999.999.2259571332.1048.1471084009.29528.dcm.tiff,0.0668830871582
290371_I00530191_1.2.410.200055.999.999.2259571332.1048.1471083979.29490.dcm.tiff,0.0761260986328
290372_I00530190_1.2.410.200055.999.999.2259571332.1048.1471083979.29489.dcm.tiff,0.076099395752
290374_I00530188_1.2.410.200055.999.999.2259571332.1048.1471083979.29487.dcm.tiff,0.076114654541
290375_I00530189_1.2.410.200055.999.999.2259571332.1048.1471083979.29488.dcm.tiff,0.0761222839355
290489_I00551722_1.2.410.200055.999.999.2259571332.1048.1471087390.34388.dcm.tiff,0.0692291259766
290490_I00551723_1.2.410.200055.999.999.2259571332.1048.1471087390.34389.dcm.tiff,0.0760879516602
29210_I00288119_1.2.410.200055.999.999.2259571332.1720.1470822265.1511.dcm.tiff,0.0994682312012
29211_I00288120_1.2.410.200055.999.999.2259571332.1720.1470822265.1512.dcm.tiff,0.0916519165039
29254_I00288113_1.2.410.200055.999.999.2259571332.1720.1470822265.1505.dcm.tiff,0.111186981201
29255_I00288114_1.2.410.200055.999.999.2259571332.1720.1470822265.1506.dcm.tiff,0.0331687927246
29436_I00288070_1.2.410.200055.999.999.2259571332.1720.1470822265.1462.dcm.tiff,0.868476867676
29437_I00288071_1.2.410.200055.999.999.2259571332.1720.1470822265.1463.dcm.tiff,0.0253753662109
29898_I00288026_1.2.410.200055.999.999.2259571332.1720.1470822265.1418.dcm.tiff,0.86909866333
29899_I00288027_1.2.410.200055.999.999.2259571332.1720.1470822265.1419.dcm.tiff,0.868995666504
29954_I00288022_1.2.410.200055.999.999.2259571332.1720.1470822265.1414.dcm.tiff,0.013671875
29955_I00288023_1.2.410.200055.999.999.2259571332.1720.1470822265.1415.dcm.tiff,0.005859375
30395_I00288001_1.2.410.200055.999.999.2259571332.1720.1470822265.1393.dcm.tiff,0.0253829956055
30396_I00288002_1.2.410.200055.999.999.2259571332.1720.1470822265.1394.dcm.tiff,0.86882019043
30616_I00287963_1.2.410.200055.999.999.2259571332.1720.1470822265.1355.dcm.tiff,0.001953125
30680_I00287964_1.2.410.200055.999.999.2259571332.1720.1470822265.1356.dcm.tiff,0.0526542663574
30783_I00287937_1.2.410.200055.999.999.2259571332.1720.1470822265.1329.dcm.tiff,0.868072509766
30784_I00287938_1.2.410.200055.999.999.2259571332.1720.1470822265.1330.dcm.tiff,0.138507843018
30945_I00295576_1.2.410.200055.999.999.2259571332.1720.1470823928.3948.dcm.tiff,0.868553161621
30947_I00295578_1.2.410.200055.999.999.2259571332.1720.1470823928.3949.dcm.tiff,0.868488311768
30968_I00295568_1.2.410.200055.999.999.2259571332.1720.1470823928.3944.dcm.tiff,0.165962219238
31024_I00296920_1.2.410.200055.999.999.2259571332.1720.1470824023.4657.dcm.tiff,0.868572235107
31079_I00295532_1.2.410.200055.999.999.2259571332.1720.1470823928.3926.dcm.tiff,0.126815795898
31223_I00295518_1.2.410.200055.999.999.2259571332.1720.1470823928.3919.dcm.tiff,0.866321563721
31224_I00295520_1.2.410.200055.999.999.2259571332.1720.1470823928.3920.dcm.tiff,0.866283416748
31226_I00296917_1.2.410.200055.999.999.2259571332.1720.1470824023.4654.dcm.tiff,0.868190765381
31267_I00295514_1.2.410.200055.999.999.2259571332.1720.1470823928.3917.dcm.tiff,0.111209869385
31268_I00295516_1.2.410.200055.999.999.2259571332.1720.1470823928.3918.dcm.tiff,0.111236572266
31697_I00296908_1.2.410.200055.999.999.2259571332.1720.1470824022.4645.dcm.tiff,0.867565155029
31858_I00295398_1.2.410.200055.999.999.2259571332.1720.1470823927.3859.dcm.tiff,0.0448837280273
31860_I00295396_1.2.410.200055.999.999.2259571332.1720.1470823927.3858.dcm.tiff,0.0526885986328
32532_I00295172_1.2.410.200055.999.999.2259571332.1720.1470823926.3746.dcm.tiff,0.0448684692383
32533_I00295174_1.2.410.200055.999.999.2259571332.1720.1470823926.3747.dcm.tiff,0.0175666809082
32698_I00300717_1.2.410.200055.999.999.2259571332.1720.1470826059.6409.dcm.tiff,0.0585479736328
32700_I00300718_1.2.410.200055.999.999.2259571332.1720.1470826059.6410.dcm.tiff,0.868350982666
32763_I00300714_1.2.410.200055.999.999.2259571332.1720.1470826059.6406.dcm.tiff,0.868091583252
32787_I00301324_1.2.410.200055.999.999.2259571332.1720.1470826107.7016.dcm.tiff,0.0955581665039
33011_I00301322_1.2.410.200055.999.999.2259571332.1720.1470826106.7014.dcm.tiff,0.867900848389
33325_I00301299_1.2.410.200055.999.999.2259571332.1720.1470826097.6991.dcm.tiff,0.868263244629
33437_I00301298_1.2.410.200055.999.999.2259571332.1720.1470826097.6990.dcm.tiff,0.001953125
33581_I00300587_1.2.410.200055.999.999.2259571332.1720.1470826058.6279.dcm.tiff,0.867931365967
33583_I00300588_1.2.410.200055.999.999.2259571332.1720.1470826058.6280.dcm.tiff,0.001953125
34022_I00300532_1.2.410.200055.999.999.2259571332.1720.1470826058.6224.dcm.tiff,0.868316650391
34073_I00300529_1.2.410.200055.999.999.2259571332.1720.1470826058.6221.dcm.tiff,0.868240356445
34075_I00300528_1.2.410.200055.999.999.2259571332.1720.1470826058.6220.dcm.tiff,0.868614196777
34080_I00300502_1.2.410.200055.999.999.2259571332.1720.1470826058.6194.dcm.tiff,0.0448303222656
34132_I00300503_1.2.410.200055.999.999.2259571332.1720.1470826058.6195.dcm.tiff,0.0370674133301
37912_I00323884_1.2.410.200055.999.999.2259571332.4004.1470831901.8542.dcm.tiff,0.86840057373
37913_I00323885_1.2.410.200055.999.999.2259571332.4004.1470831901.8543.dcm.tiff,0.868511199951
38276_I00324472_1.2.410.200055.999.999.2259571332.4004.1470831917.9130.dcm.tiff,0.197074890137
39201_I00332014_1.2.410.200055.999.999.2259571332.4004.1470833369.11256.dcm.tiff,0.867694854736
41910_I00346485_1.2.410.200055.999.999.2259571332.3816.1470836879.1790.dcm.tiff,0.86861038208
45984_I00388175_1.2.410.200055.999.999.2259571332.3784.1470922014.1551.dcm.tiff,0.868503570557
45985_I00388174_1.2.410.200055.999.999.2259571332.3784.1470922014.1550.dcm.tiff,0.868114471436
48191_I00395106_1.2.410.200055.999.999.2259571332.3784.1470925697.7153.dcm.tiff,0.0917434692383
52724_I00429337_1.2.410.200055.999.999.2259571332.1048.1471003027.5106.dcm.tiff,0.0253829956055
70099_I00807344_1.2.410.200055.999.999.2259571332.1048.1471173834.95932.dcm.tiff,0.283073425293
8327_I00530418_1.2.410.200055.999.999.2259571332.1048.1471084036.29717.dcm.tiff,0.0760536193848
8329_I00530419_1.2.410.200055.999.999.2259571332.1048.1471084036.29718.dcm.tiff,0.161853790283
8339_I00530414_1.2.410.200055.999.999.2259571332.1048.1471084035.29713.dcm.tiff,0.0758895874023
8340_I00530415_1.2.410.200055.999.999.2259571332.1048.1471084035.29714.dcm.tiff,0.0760536193848
8342_I00530412_1.2.410.200055.999.999.2259571332.1048.1471084035.29711.dcm.tiff,0.0760307312012
8343_I00530413_1.2.410.200055.999.999.2259571332.1048.1471084035.29712.dcm.tiff,0.0693092346191
8347_I00530407_1.2.410.200055.999.999.2259571332.1048.1471084034.29706.dcm.tiff,0.0665397644043
8348_I00530408_1.2.410.200055.999.999.2259571332.1048.1471084034.29707.dcm.tiff,0.0758666992188
8350_I00530405_1.2.410.200055.999.999.2259571332.1048.1471084034.29704.dcm.tiff,0.0719032287598
8351_I00530406_1.2.410.200055.999.999.2259571332.1048.1471084034.29705.dcm.tiff,0.0703735351562
8353_I00530400_1.2.410.200055.999.999.2259571332.1048.1471084033.29699.dcm.tiff,0.0673942565918
8354_I00530401_1.2.410.200055.999.999.2259571332.1048.1471084033.29700.dcm.tiff,0.0740013122559
8395_I00530359_1.2.410.200055.999.999.2259571332.1048.1471084025.29658.dcm.tiff,0.0665435791016
8396_I00530360_1.2.410.200055.999.999.2259571332.1048.1471084025.29659.dcm.tiff,0.0627021789551
8408_I00530357_1.2.410.200055.999.999.2259571332.1048.1471084025.29656.dcm.tiff,0.0671691894531
8409_I00530358_1.2.410.200055.999.999.2259571332.1048.1471084025.29657.dcm.tiff,0.0651016235352
8998_I00531130_1.2.410.200055.999.999.2259571332.1048.1471084098.30429.dcm.tiff,0.0759582519531
9014_I00530289_1.2.410.200055.999.999.2259571332.1048.1471084014.29588.dcm.tiff,0.0722694396973
9015_I00530288_1.2.410.200055.999.999.2259571332.1048.1471084013.29587.dcm.tiff,0.0634078979492
9074_I00530265_1.2.410.200055.999.999.2259571332.1048.1471084012.29564.dcm.tiff,0.0659484863281
9076_I00530264_1.2.410.200055.999.999.2259571332.1048.1471084012.29563.dcm.tiff,0.0557022094727
9078_I00530262_1.2.410.200055.999.999.2259571332.1048.1471084012.29561.dcm.tiff,0.0758857727051
9079_I00530263_1.2.410.200055.999.999.2259571332.1048.1471084012.29562.dcm.tiff,0.0760726928711
9086_I00530260_1.2.410.200055.999.999.2259571332.1048.1471084012.29559.dcm.tiff,0.0660858154297
9087_I00530259_1.2.410.200055.999.999.2259571332.1048.1471084012.29558.dcm.tiff,0.124256134033
0001_I01474768_1.2.410.200055.999.999.4113192521.5828.1471525678.30411.dcm.tiff,0.741367340088
0001_I01475024_1.2.410.200055.999.999.4113192521.5828.1471525685.30535.dcm.tiff,0.620361328125
0001_I01476739_1.2.410.200055.999.999.4113192521.5828.1471525735.31320.dcm.tiff,0.865051269531
0001_I01487117_1.2.410.200055.999.999.4113192521.5828.1471532945.32704.dcm.tiff,0.869140625
0001_I01487128_1.2.410.200055.999.999.4113192521.5828.1471532947.32715.dcm.tiff,0.726917266846
0001_I01487132_1.2.410.200055.999.999.4113192521.5828.1471532948.32719.dcm.tiff,0.683765411377
0001_I01487170_1.2.410.200055.999.999.4113192521.5828.1471532953.32757.dcm.tiff,0.869125366211
0001_I01487179_1.2.410.200055.999.999.4113192521.5828.1471532955.32766.dcm.tiff,0.743671417236
0001_I01487432_1.2.410.200055.999.999.4113192521.5828.1471533008.33019.dcm.tiff,0.670986175537
0001_I01487956_1.2.410.200055.999.999.4113192521.5828.1471533097.33543.dcm.tiff,0.685527801514
0001_I01496672_1.2.410.200055.999.999.4113192521.2336.1471741835.1306.dcm.tiff,0.86731338501
0001_I01496751_1.2.410.200055.999.999.4113192521.2336.1471741841.1385.dcm.tiff,0.856632232666
0001_I01508578_1.2.410.200055.999.999.4113192521.2336.1471743971.3429.dcm.tiff,0.779216766357
0001_I01508584_1.2.410.200055.999.999.4113192521.2336.1471743971.3435.dcm.tiff,0.722164154053
0001_I01508598_1.2.410.200055.999.999.4113192521.2336.1471743978.3449.dcm.tiff,0.764846801758
0001_I01508685_1.2.410.200055.999.999.4113192521.2336.1471743992.3536.dcm.tiff,0.771171569824
0001_I01509149_1.2.410.200055.999.999.4113192521.2336.1471744027.4000.dcm.tiff,0.749950408936
0001_I01509158_1.2.410.200055.999.999.4113192521.2336.1471744029.4009.dcm.tiff,0.744049072266
0001_I01509237_1.2.410.200055.999.999.4113192521.2336.1471744046.4088.dcm.tiff,0.727504730225
0001_I01513300_1.2.410.200055.999.999.4113192521.2336.1471749877.5228.dcm.tiff,0.690074920654
0001_I01513335_1.2.410.200055.999.999.4113192521.2336.1471749888.5261.dcm.tiff,0.707321166992
0001_I01513347_1.2.410.200055.999.999.4113192521.2336.1471749891.5273.dcm.tiff,0.712886810303
0001_I01513441_1.2.410.200055.999.999.4113192521.2336.1471749908.5367.dcm.tiff,0.771041870117
0001_I01513520_1.2.410.200055.999.999.4113192521.2336.1471749922.5446.dcm.tiff,0.867694854736
0001_I01513548_1.2.410.200055.999.999.4113192521.2336.1471749928.5474.dcm.tiff,0.778388977051
0001_I01513554_1.2.410.200055.999.999.4113192521.2336.1471749928.5480.dcm.tiff,0.709117889404
0001_I01513561_1.2.410.200055.999.999.4113192521.2336.1471749930.5487.dcm.tiff,0.718166351318
0001_I01524790_1.2.410.200055.999.999.4113192521.2336.1471757030.8212.dcm.tiff,0.773597717285
0001_I01535309_1.2.410.200055.999.999.4113192521.2336.1471758754.10053.dcm.tiff,0.84252166748
0001_I01537752_1.2.410.200055.999.999.4113192521.2336.1471760374.12238.dcm.tiff,0.076171875
0001_I01538202_1.2.410.200055.999.999.4113192521.2336.1471760397.12688.dcm.tiff,0.782367706299
0001_I01549570_1.2.410.200055.999.999.4113192521.2336.1471762631.14953.dcm.tiff,0.6708984375
0001_I01551774_1.2.410.200055.999.999.4113192521.2336.1471768702.17143.dcm.tiff,0.715545654297
0001_I01566712_1.2.410.200055.999.999.4113192521.2336.1471771167.19637.dcm.tiff,0.75821685791
0001_I01586185_1.2.410.200055.999.999.4113192521.2336.1471778202.24821.dcm.tiff,0.714786529541
0001_I01587280_1.2.410.200055.999.999.4113192521.2336.1471778224.25293.dcm.tiff,0.78169631958
0001_I01610992_1.2.410.200055.999.999.4113192521.2336.1471785790.30933.dcm.tiff,0.757522583008
0001_I01611244_1.2.410.200055.999.999.4113192521.2336.1471785818.31185.dcm.tiff,0.076171875
0001_I01625783_1.2.410.200055.999.999.4113192521.2336.1471788467.33956.dcm.tiff,0.076171875
0002_I01474770_1.2.410.200055.999.999.4113192521.5828.1471525678.30412.dcm.tiff,0.854656219482
0002_I01475027_1.2.410.200055.999.999.4113192521.5828.1471525685.30536.dcm.tiff,0.71993637085
0002_I01487118_1.2.410.200055.999.999.4113192521.5828.1471532945.32705.dcm.tiff,0.867336273193
0002_I01487129_1.2.410.200055.999.999.4113192521.5828.1471532947.32716.dcm.tiff,0.80770111084
0002_I01487133_1.2.410.200055.999.999.4113192521.5828.1471532948.32720.dcm.tiff,0.783073425293
0002_I01487171_1.2.410.200055.999.999.4113192521.5828.1471532953.32758.dcm.tiff,0.852596282959
0002_I01487180_1.2.410.200055.999.999.4113192521.5828.1471532955.32767.dcm.tiff,0.758399963379
0002_I01487433_1.2.410.200055.999.999.4113192521.5828.1471533009.33020.dcm.tiff,0.753826141357
0002_I01496673_1.2.410.200055.999.999.4113192521.2336.1471741835.1307.dcm.tiff,0.84712600708
0002_I01496752_1.2.410.200055.999.999.4113192521.2336.1471741842.1386.dcm.tiff,0.788619995117
0002_I01508579_1.2.410.200055.999.999.4113192521.2336.1471743971.3430.dcm.tiff,0.739414215088
0002_I01508585_1.2.410.200055.999.999.4113192521.2336.1471743971.3436.dcm.tiff,0.738422393799
0002_I01508599_1.2.410.200055.999.999.4113192521.2336.1471743978.3450.dcm.tiff,0.742500305176
0002_I01508686_1.2.410.200055.999.999.4113192521.2336.1471743993.3537.dcm.tiff,0.736167907715
0002_I01513303_1.2.410.200055.999.999.4113192521.2336.1471749877.5229.dcm.tiff,0.863143920898
0002_I01513336_1.2.410.200055.999.999.4113192521.2336.1471749888.5262.dcm.tiff,0.694522857666
0002_I01513348_1.2.410.200055.999.999.4113192521.2336.1471749892.5274.dcm.tiff,0.692195892334
0002_I01513442_1.2.410.200055.999.999.4113192521.2336.1471749908.5368.dcm.tiff,0.780426025391
0002_I01513521_1.2.410.200055.999.999.4113192521.2336.1471749922.5447.dcm.tiff,0.738159179688
0002_I01513549_1.2.410.200055.999.999.4113192521.2336.1471749928.5475.dcm.tiff,0.868114471436
0002_I01513555_1.2.410.200055.999.999.4113192521.2336.1471749929.5481.dcm.tiff,0.779579162598
0002_I01513562_1.2.410.200055.999.999.4113192521.2336.1471749930.5488.dcm.tiff,0.709182739258
0002_I01524791_1.2.410.200055.999.999.4113192521.2336.1471757030.8213.dcm.tiff,0.769111633301
0002_I01535311_1.2.410.200055.999.999.4113192521.2336.1471758754.10054.dcm.tiff,0.868934631348
0002_I01537753_1.2.410.200055.999.999.4113192521.2336.1471760375.12239.dcm.tiff,0.076171875
0002_I01549571_1.2.410.200055.999.999.4113192521.2336.1471762632.14954.dcm.tiff,0.64981842041
0002_I01551776_1.2.410.200055.999.999.4113192521.2336.1471768702.17144.dcm.tiff,0.707790374756
0002_I01566713_1.2.410.200055.999.999.4113192521.2336.1471771168.19638.dcm.tiff,0.781055450439
0002_I01586188_1.2.410.200055.999.999.4113192521.2336.1471778202.24822.dcm.tiff,0.836498260498
0002_I01610993_1.2.410.200055.999.999.4113192521.2336.1471785791.30934.dcm.tiff,0.709621429443
0002_I01611245_1.2.410.200055.999.999.4113192521.2336.1471785818.31186.dcm.tiff,0.076171875
0002_I01625784_1.2.410.200055.999.999.4113192521.2336.1471788467.33957.dcm.tiff,0.716892242432
1.2.410.200003.300.3.1504569386406.1504571913421.100104011.dcm.tiff,0.0308609008789
1.2.410.200003.300.3.1504569386406.1504571914265.100015851.dcm.tiff,0.0307006835938
1.2.410.200013.1.300.1.20170927140907066.222.dcm.tiff,0.809093475342
1.2.410.200013.1.300.1.20170927140907315.223.dcm.tiff,0.801597595215
102795_I00645340_1.2.410.200055.999.999.459691215.2360.1471100767.71781.dcm.tiff,0.005859375
109554_I00667644_1.2.410.200055.999.999.459691215.2360.1471138502.79281.dcm.tiff,0.005859375
110078_I00680732_1.2.410.200055.999.999.459691215.2360.1471139863.83259.dcm.tiff,0.868740081787
112808_I00689794_1.2.410.200055.999.999.459691215.2360.1471141554.86809.dcm.tiff,0.0253677368164
114141_I00689024_1.2.410.200055.999.999.459691215.2360.1471141553.86552.dcm.tiff,0.86877822876
114142_I00689026_1.2.410.200055.999.999.459691215.2360.1471141553.86553.dcm.tiff,0.797451019287
128857_I00760714_1.2.410.200055.999.999.459691215.2360.1471166285.108933.dcm.tiff,0.868759155273
142674_I00821282_1.2.410.200055.999.999.459691215.2360.1471185166.130581.dcm.tiff,0.0585670471191
431271_I01360025_1.2.410.200055.999.999.4113192521.2796.1471443618.5805.dcm.tiff,0.0448608398438
63032_I00416398_1.2.410.200055.999.999.459691215.2360.1470995384.1863.dcm.tiff,0.0722236633301
63033_I00416399_1.2.410.200055.999.999.459691215.2360.1470995384.1864.dcm.tiff,0.868625640869
63473_I00416316_1.2.410.200055.999.999.459691215.2360.1470995383.1781.dcm.tiff,0.0761337280273
63501_I00416317_1.2.410.200055.999.999.459691215.2360.1470995383.1782.dcm.tiff,0.0369110107422
65000_I00425937_1.2.410.200055.999.999.459691215.2360.1471002677.4241.dcm.tiff,0.0878448486328
74475_I00476685_1.2.410.200055.999.999.459691215.2360.1471074792.20058.dcm.tiff,0.8684425354
82264_I00509146_1.2.410.200055.999.999.459691215.2360.1471081031.30765.dcm.tiff,0.868824005127
82977_I00508958_1.2.410.200055.999.999.459691215.2360.1471081030.30577.dcm.tiff,0.001953125
83178_I00508896_1.2.410.200055.999.999.459691215.2360.1471081030.30515.dcm.tiff,0.005859375
83863_I00524233_1.2.410.200055.999.999.459691215.2360.1471083126.34527.dcm.tiff,0.0585823059082
88343_I00541725_1.2.410.200055.999.999.459691215.2360.1471086505.40686.dcm.tiff,0.115104675293
88345_I00541729_1.2.410.200055.999.999.459691215.2360.1471086505.40687.dcm.tiff,0.122982025146
88472_I00556039_1.2.410.200055.999.999.459691215.2360.1471088230.45194.dcm.tiff,0.868419647217
88492_I00556036_1.2.410.200055.999.999.459691215.2360.1471088230.45191.dcm.tiff,0.0370788574219
89102_I00555342_1.2.410.200055.999.999.459691215.2360.1471088226.44497.dcm.tiff,0.0175552368164
89103_I00555343_1.2.410.200055.999.999.459691215.2360.1471088226.44498.dcm.tiff,0.0838661193848
92345_I00580059_1.2.410.200055.999.999.459691215.2360.1471092500.50923.dcm.tiff,0.868865966797
92810_I00581161_1.2.410.200055.999.999.459691215.2360.1471092503.51474.dcm.tiff,0.037052154541
93672_I00579516_1.2.410.200055.999.999.459691215.2360.1471092499.50651.dcm.tiff,0.0878639221191
93674_I00579514_1.2.410.200055.999.999.459691215.2360.1471092499.50650.dcm.tiff,0.868320465088
0001_I00980847_1.2.410.200055.999.999.4113192521.2136.1471254580.147974.dcm.tiff,0.076171875
0001_I01021762_1.2.410.200055.999.999.4113192521.2136.1471261378.160070.dcm.tiff,0.776912689209
0001_I01040447_1.2.410.200055.999.999.4113192521.2136.1471264829.161539.dcm.tiff,0.74015045166
0001_I01341031_1.2.410.200055.999.999.554791750.5132.1471360653.54771.dcm.tiff,0.076171875
0001_I01407974_1.2.410.200055.999.999.554791750.6088.1471516260.15317.dcm.tiff,0.717010498047
0001_I01433314_1.2.410.200055.999.999.554791750.6088.1471519484.21178.dcm.tiff,0.076171875
0001_I01469393_1.2.410.200055.999.999.2259571332.1048.1471525192.223535.dcm.tiff,0.674724578857
0001_I01477223_1.2.410.200055.999.999.554791750.6088.1471525819.33033.dcm.tiff,0.795780181885
0001_I01492398_1.2.410.200055.999.999.3213476655.9024.1471622635.25947.dcm.tiff,0.869140625
0001_I01496666_1.2.410.200055.999.999.4113192521.2336.1471741834.1300.dcm.tiff,0.864395141602
0001_I01496700_1.2.410.200055.999.999.4113192521.2336.1471741838.1334.dcm.tiff,0.857078552246
0001_I01508813_1.2.410.200055.999.999.4113192521.2336.1471744010.3664.dcm.tiff,0.713768005371
0001_I01514108_1.2.410.200055.999.999.4113192521.2336.1471749967.6034.dcm.tiff,0.824691772461
0001_I01538243_1.2.410.200055.999.999.4113192521.2336.1471760400.12729.dcm.tiff,0.785247802734
0001_I01549812_1.2.410.200055.999.999.4113192521.2336.1471762648.15195.dcm.tiff,0.755260467529
0001_I01562184_1.2.410.200055.999.999.554791750.6088.1471770900.58970.dcm.tiff,0.076171875
0001_I01566582_1.2.410.200055.999.999.4113192521.2336.1471771151.19507.dcm.tiff,0.694343566895
0001_I01581997_1.2.410.200055.999.999.2259571332.1048.1471777947.246422.dcm.tiff,0.868556976318
0001_I01589964_1.2.410.200055.999.999.3213476655.9024.1471779057.45673.dcm.tiff,0.847301483154
0001_I01593319_1.2.410.200055.999.999.554791750.1080.1471782499.1197.dcm.tiff,0.801647186279
0001_I01611930_1.2.410.200055.999.999.4113192521.2336.1471785855.31865.dcm.tiff,0.076171875
0001_I01618691_1.2.410.200055.999.999.2259571332.1048.1471787213.253036.dcm.tiff,0.076171875
0001_I01638901_1.2.410.200055.999.999.4113192521.2336.1471791615.36864.dcm.tiff,0.869140625
0001_I01662694_1.2.410.200055.999.999.4113192521.2336.1471797052.40585.dcm.tiff,0.076171875
0001_I01675786_1.2.410.200055.999.999.2259571332.1048.1471860262.264297.dcm.tiff,0.8118019104
0001_I01683225_1.2.410.200055.999.999.554791750.1080.1471862498.32820.dcm.tiff,0.86890411377
0002_I00980849_1.2.410.200055.999.999.4113192521.2136.1471254582.147975.dcm.tiff,0.076171875
0002_I01040448_1.2.410.200055.999.999.4113192521.2136.1471264830.161540.dcm.tiff,0.757419586182
0002_I01407975_1.2.410.200055.999.999.554791750.6088.1471516260.15318.dcm.tiff,0.864822387695
0002_I01433315_1.2.410.200055.999.999.554791750.6088.1471519484.21179.dcm.tiff,0.0761413574219
0002_I01469394_1.2.410.200055.999.999.2259571332.1048.1471525192.223536.dcm.tiff,0.737064361572
0002_I01477225_1.2.410.200055.999.999.554791750.6088.1471525819.33034.dcm.tiff,0.076171875
0002_I01496667_1.2.410.200055.999.999.4113192521.2336.1471741835.1301.dcm.tiff,0.856025695801
0002_I01496701_1.2.410.200055.999.999.4113192521.2336.1471741839.1335.dcm.tiff,0.773429870605
0002_I01508814_1.2.410.200055.999.999.4113192521.2336.1471744010.3665.dcm.tiff,0.689441680908
0002_I01514109_1.2.410.200055.999.999.4113192521.2336.1471749967.6035.dcm.tiff,0.076171875
0002_I01549813_1.2.410.200055.999.999.4113192521.2336.1471762648.15196.dcm.tiff,0.693965911865
0002_I01566583_1.2.410.200055.999.999.4113192521.2336.1471771152.19508.dcm.tiff,0.716484069824
0002_I01581999_1.2.410.200055.999.999.2259571332.1048.1471777947.246423.dcm.tiff,0.868091583252
0002_I01589965_1.2.410.200055.999.999.3213476655.9024.1471779057.45674.dcm.tiff,0.840244293213
0002_I01593320_1.2.410.200055.999.999.554791750.1080.1471782499.1198.dcm.tiff,0.795413970947
0002_I01611933_1.2.410.200055.999.999.4113192521.2336.1471785856.31866.dcm.tiff,0.695140838623
0002_I01618693_1.2.410.200055.999.999.2259571332.1048.1471787214.253037.dcm.tiff,0.742137908936
0002_I01638902_1.2.410.200055.999.999.4113192521.2336.1471791615.36865.dcm.tiff,0.804706573486
0002_I01662695_1.2.410.200055.999.999.4113192521.2336.1471797052.40586.dcm.tiff,0.076171875
0002_I01675788_1.2.410.200055.999.999.2259571332.1048.1471860262.264298.dcm.tiff,0.833045959473
0002_I01683226_1.2.410.200055.999.999.554791750.1080.1471862498.32821.dcm.tiff,0.839782714844
0003_I01433316_1.2.410.200055.999.999.554791750.6088.1471519484.21180.dcm.tiff,0.076171875
0003_I01496702_1.2.410.200055.999.999.4113192521.2336.1471741839.1336.dcm.tiff,0.746074676514
0003_I01589966_1.2.410.200055.999.999.3213476655.9024.1471779057.45675.dcm.tiff,0.076171875
13318_I00647931_1.2.410.200055.999.999.3213476655.13208.1471103208.45235.dcm.tiff,0.000118255615234
13319_I00647932_1.2.410.200055.999.999.3213476655.13208.1471103209.45236.dcm.tiff,0.000118255615234
276800_I00442577_1.2.410.200055.999.999.2259571332.1048.1471015788.8958.dcm.tiff,0.868740081787
290072_I00530445_1.2.410.200055.999.999.2259571332.1048.1471084043.29744.dcm.tiff,0.0639419555664
290073_I00530446_1.2.410.200055.999.999.2259571332.1048.1471084043.29745.dcm.tiff,0.0641479492188
290164_I00531136_1.2.410.200055.999.999.2259571332.1048.1471084099.30435.dcm.tiff,0.076000213623
290307_I00530218_1.2.410.200055.999.999.2259571332.1048.1471084005.29517.dcm.tiff,0.065055847168
290308_I00530219_1.2.410.200055.999.999.2259571332.1048.1471084006.29518.dcm.tiff,0.0660285949707
51205_I00410408_1.2.410.200055.999.999.2259571332.3416.1470932308.7275.dcm.tiff,0.115146636963
8345_I00530411_1.2.410.200055.999.999.2259571332.1048.1471084035.29710.dcm.tiff,0.0692749023438
9033_I00530280_1.2.410.200055.999.999.2259571332.1048.1471084013.29579.dcm.tiff,0.0673027038574
9034_I00530281_1.2.410.200055.999.999.2259571332.1048.1471084013.29580.dcm.tiff,0.0761070251465
